{
    "key": "group_5ba0bf1ebce6e",
    "title": "Sidehoved",
    "fields": [
        {
            "key": "field_5ba0bf5c475ec",
            "label": "Sidetitel",
            "name": "page_title",
            "type": "text",
            "instructions": "",
            "required": 0,
            "conditional_logic": 0,
            "wrapper": {
                "width": "",
                "class": "",
                "id": ""
            },
            "default_value": "",
            "placeholder": "",
            "prepend": "",
            "append": "",
            "maxlength": ""
        }
    ],
    "location": [
        [
            {
                "param": "page_template",
                "operator": "==",
                "value": "default"
            }
        ],
        [
            {
                "param": "page_template",
                "operator": "==",
                "value": "page-layouts.php"
            },
            {
                "param": "page_type",
                "operator": "!=",
                "value": "front_page"
            }
        ],
        [
            {
                "param": "page_template",
                "operator": "==",
                "value": "product-teaser.php"
            }
        ],
        [
            {
                "param": "page_template",
                "operator": "==",
                "value": "parts\/contact.php"
            }
        ],
        [
            {
                "param": "page_template",
                "operator": "==",
                "value": "form-confirmation.php"
            }
        ]
    ],
    "menu_order": 0,
    "position": "normal",
    "style": "default",
    "label_placement": "top",
    "instruction_placement": "label",
    "hide_on_screen": [
        "the_content"
    ],
    "active": 1,
    "description": "",
    "modified": 1585769945
}